<?xml version="1.0" encoding="UTF-8"?>
<svg width="199px" height="172px" viewBox="0 0 199 172" version="1.1" xmlns="http://www.w3.org/2000/svg" xmlns:xlink="http://www.w3.org/1999/xlink">
    <!-- Generator: Sketch 51.2 (57519) - http://www.bohemiancoding.com/sketch -->
    <title>Group</title>
    <desc>Created with Sketch.</desc>
    <defs></defs>
    <g id="Page-1" stroke="none" stroke-width="1" fill="none" fill-rule="evenodd">
        <g id="jemnezrozeni_lg_cmyk" transform="translate(-45.000000, -45.000000)">
            <g id="Group" transform="translate(45.000000, 45.000000)">
                <path d="M0.1851,169.1602 L1.5271,167.8372 C1.6851,167.7002 1.9021,167.6802 2.0601,167.8372 C2.2971,168.0752 2.5351,168.2522 3.0671,168.2522 C3.6201,168.2522 4.2311,167.7392 4.2311,166.7522 L4.2311,157.4552 C4.2311,157.2582 4.3901,157.0802 4.6061,157.0802 L7.0151,157.0802 C7.2311,157.0802 7.3901,157.2582 7.3901,157.4552 L7.3901,166.7722 C7.3901,169.5152 5.4561,171.0952 3.1461,171.0952 C1.4281,171.0952 0.4811,170.0682 0.1451,169.6542 C0.0471,169.4952 0.0671,169.2982 0.1851,169.1602" id="Fill-1" fill="#5F5C64"></path>
                <path d="M14.4336,157.4551 C14.4336,157.2581 14.5916,157.0801 14.8086,157.0801 L22.9796,157.0801 C23.1976,157.0801 23.3546,157.2581 23.3546,157.4551 L23.3546,159.6071 C23.3546,159.8051 23.1976,159.9811 22.9796,159.9811 L17.5126,159.9811 L17.5126,162.4291 L22.0136,162.4291 C22.2106,162.4291 22.3886,162.6071 22.3886,162.8051 L22.3886,164.9561 C22.3886,165.1731 22.2106,165.3311 22.0136,165.3311 L17.5126,165.3311 L17.5126,167.9961 L22.9796,167.9961 C23.1976,167.9961 23.3546,168.1731 23.3546,168.3711 L23.3546,170.5221 C23.3546,170.7191 23.1976,170.8971 22.9796,170.8971 L14.8086,170.8971 C14.5916,170.8971 14.4336,170.7191 14.4336,170.5221 L14.4336,157.4551 Z" id="Fill-3" fill="#5F5C64"></path>
                <path d="M31.3066,157.1987 C31.3266,157.0207 31.5046,156.8827 31.6616,156.8827 L31.9776,156.8827 C32.0766,156.8827 32.2546,156.9617 32.3136,157.0797 L36.8926,165.6067 L36.9316,165.6067 L41.5116,157.0797 C41.5706,156.9617 41.7486,156.8827 41.8466,156.8827 L42.1626,156.8827 C42.3206,156.8827 42.4986,157.0207 42.5186,157.1987 L44.7486,170.4627 C44.7886,170.7197 44.6106,170.8967 44.3736,170.8967 L42.0446,170.8967 C41.8666,170.8967 41.6896,170.7397 41.6696,170.5807 L40.7816,164.4817 L40.7416,164.4817 L37.4256,170.8767 C37.3666,170.9957 37.1886,171.0947 37.0906,171.0947 L36.7356,171.0947 C36.6166,171.0947 36.4586,170.9957 36.3996,170.8767 L33.0636,164.4817 L33.0236,164.4817 L32.1556,170.5807 C32.1356,170.7397 31.9776,170.8967 31.7806,170.8967 L29.4516,170.8967 C29.2146,170.8967 29.0366,170.7197 29.0766,170.4627 L31.3066,157.1987 Z" id="Fill-5" fill="#5F5C64"></path>
                <path d="M51.1982,157.2383 C51.1982,157.0413 51.3752,156.8833 51.5732,156.8833 L52.0662,156.8833 L59.9422,164.4623 L59.9612,164.4623 L59.9612,157.4553 C59.9612,157.2583 60.1192,157.0803 60.3372,157.0803 L62.7052,157.0803 C62.9042,157.0803 63.0812,157.2583 63.0812,157.4553 L63.0812,170.7393 C63.0812,170.9373 62.9042,171.0953 62.7052,171.0953 L62.3902,171.0953 C62.3312,171.0953 62.1732,171.0353 62.1332,170.9963 L54.3362,163.1593 L54.3172,163.1593 L54.3172,170.5223 C54.3172,170.7193 54.1592,170.8973 53.9422,170.8973 L51.5932,170.8973 C51.3962,170.8973 51.2182,170.7193 51.2182,170.5223 L51.1982,157.2383 Z" id="Fill-7" fill="#5F5C64"></path>
                <path d="M73.0444,155.6792 L72.6294,154.8492 C72.5514,154.6922 72.6504,154.5542 72.7484,154.4752 L76.1044,152.4212 C76.2224,152.3432 76.5184,152.3032 76.6174,152.4812 L77.2874,153.6462 C77.4464,153.9422 77.3274,154.1392 77.1704,154.2382 L73.5774,155.8562 C73.3204,156.0142 73.1434,155.8762 73.0444,155.6792 Z M70.4194,157.4552 C70.4194,157.2582 70.5764,157.0802 70.7944,157.0802 L78.9664,157.0802 C79.1824,157.0802 79.3414,157.2582 79.3414,157.4552 L79.3414,159.6072 C79.3414,159.8042 79.1824,159.9812 78.9664,159.9812 L73.4984,159.9812 L73.4984,162.4292 L77.9984,162.4292 C78.1964,162.4292 78.3744,162.6072 78.3744,162.8042 L78.3744,164.9562 C78.3744,165.1732 78.1964,165.3312 77.9984,165.3312 L73.4984,165.3312 L73.4984,167.9952 L78.9664,167.9952 C79.1824,167.9952 79.3414,168.1732 79.3414,168.3702 L79.3414,170.5222 C79.3414,170.7192 79.1824,170.8972 78.9664,170.8972 L70.7944,170.8972 C70.5764,170.8972 70.4194,170.7192 70.4194,170.5222 L70.4194,157.4552 Z" id="Fill-9" fill="#5F5C64"></path>
                <path d="M92.9941,170.1665 L98.2441,160.0215 L98.2441,159.9815 L93.9421,159.9815 C93.7441,159.9815 93.5661,159.8045 93.5661,159.6065 L93.5661,157.4555 C93.5661,157.2585 93.7441,157.0805 93.9421,157.0805 L102.3301,157.0805 C102.5281,157.0805 102.7051,157.2585 102.7051,157.4555 L102.7051,157.7115 L97.6331,167.9565 L97.6331,167.9955 L101.9361,167.9955 C102.1531,167.9955 102.3111,168.1725 102.3111,168.3705 L102.3111,170.5225 C102.3111,170.7195 102.1531,170.8965 101.9361,170.8965 L93.3691,170.8965 C93.1721,170.8965 92.9941,170.7195 92.9941,170.5225 L92.9941,170.1665 Z" id="Fill-11" fill="#5F5C64"></path>
                <path d="M114.9014,162.9824 C115.7104,162.9824 116.4014,162.2324 116.4014,161.4024 C116.4014,160.5734 115.7104,159.9024 114.9014,159.9024 L111.9794,159.9024 L111.9794,162.9824 L114.9014,162.9824 Z M108.8804,157.4554 C108.8804,157.2584 109.0384,157.0804 109.2554,157.0804 L115.1574,157.0804 C117.5264,157.0804 119.4614,158.9954 119.4614,161.3444 C119.4614,163.1594 118.2564,164.6204 116.5384,165.3114 L119.2434,170.3244 C119.3814,170.5814 119.2434,170.8974 118.9074,170.8974 L116.2824,170.8974 C116.1254,170.8974 116.0054,170.7984 115.9664,170.7194 L113.3414,165.4894 L111.9794,165.4894 L111.9794,170.5224 C111.9794,170.7194 111.8024,170.8974 111.6044,170.8974 L109.2554,170.8974 C109.0384,170.8974 108.8804,170.7194 108.8804,170.5224 L108.8804,157.4554 Z" id="Fill-13" fill="#5F5C64"></path>
                <path d="M132.1289,167.9365 C134.2999,167.9365 136.0759,166.1605 136.0759,164.0085 C136.0759,161.8365 134.2999,160.0405 132.1289,160.0405 C129.9769,160.0405 128.2009,161.8365 128.2009,164.0085 C128.2009,166.1605 129.9769,167.9365 132.1289,167.9365 M132.1289,156.8825 C136.0759,156.8825 139.2339,160.0615 139.2339,164.0085 C139.2339,167.9565 136.0759,171.0955 132.1289,171.0955 C128.1809,171.0955 125.0429,167.9565 125.0429,164.0085 C125.0429,160.0615 128.1809,156.8825 132.1289,156.8825" id="Fill-15" fill="#5F5C64"></path>
                <path d="M144.2241,170.1665 L149.4741,160.0215 L149.4741,159.9815 L145.1721,159.9815 C144.9741,159.9815 144.7971,159.8045 144.7971,159.6065 L144.7971,157.4555 C144.7971,157.2585 144.9741,157.0805 145.1721,157.0805 L153.5601,157.0805 C153.7581,157.0805 153.9351,157.2585 153.9351,157.4555 L153.9351,157.7115 L148.8631,167.9565 L148.8631,167.9955 L153.1651,167.9955 C153.3831,167.9955 153.5411,168.1725 153.5411,168.3705 L153.5411,170.5225 C153.5411,170.7195 153.3831,170.8965 153.1651,170.8965 L144.5991,170.8965 C144.4021,170.8965 144.2241,170.7195 144.2241,170.5225 L144.2241,170.1665 Z" id="Fill-17" fill="#5F5C64"></path>
                <path d="M160.1104,157.4551 C160.1104,157.2581 160.2684,157.0801 160.4854,157.0801 L168.6574,157.0801 C168.8744,157.0801 169.0324,157.2581 169.0324,157.4551 L169.0324,159.6071 C169.0324,159.8051 168.8744,159.9811 168.6574,159.9811 L163.1904,159.9811 L163.1904,162.4291 L167.6894,162.4291 C167.8874,162.4291 168.0654,162.6071 168.0654,162.8051 L168.0654,164.9561 C168.0654,165.1731 167.8874,165.3311 167.6894,165.3311 L163.1904,165.3311 L163.1904,167.9961 L168.6574,167.9961 C168.8744,167.9961 169.0324,168.1731 169.0324,168.3711 L169.0324,170.5221 C169.0324,170.7191 168.8744,170.8971 168.6574,170.8971 L160.4854,170.8971 C160.2684,170.8971 160.1104,170.7191 160.1104,170.5221 L160.1104,157.4551 Z" id="Fill-19" fill="#5F5C64"></path>
                <path d="M175.6016,157.2383 C175.6016,157.0413 175.7796,156.8833 175.9766,156.8833 L176.4706,156.8833 L184.3466,164.4623 L184.3656,164.4623 L184.3656,157.4553 C184.3656,157.2583 184.5226,157.0803 184.7406,157.0803 L187.1096,157.0803 C187.3066,157.0803 187.4846,157.2583 187.4846,157.4553 L187.4846,170.7393 C187.4846,170.9373 187.3066,171.0953 187.1096,171.0953 L186.7936,171.0953 C186.7346,171.0953 186.5766,171.0353 186.5366,170.9963 L178.7396,163.1593 L178.7206,163.1593 L178.7206,170.5223 C178.7206,170.7193 178.5626,170.8973 178.3456,170.8973 L175.9966,170.8973 C175.7986,170.8973 175.6216,170.7193 175.6216,170.5223 L175.6016,157.2383 Z" id="Fill-21" fill="#5F5C64"></path>
                <path d="M194.8223,157.4551 C194.8223,157.2581 195.0003,157.0801 195.1973,157.0801 L197.5663,157.0801 C197.7633,157.0801 197.9413,157.2581 197.9413,157.4551 L197.9413,170.5221 C197.9413,170.7191 197.7633,170.8971 197.5663,170.8971 L195.1973,170.8971 C195.0003,170.8971 194.8223,170.7191 194.8223,170.5221 L194.8223,157.4551 Z M194.4473,155.6791 L194.0333,154.8501 C193.9543,154.6921 194.0533,154.5541 194.1513,154.4751 L197.5073,152.4211 C197.6253,152.3431 197.9213,152.3031 198.0203,152.4811 L198.6913,153.6461 C198.8493,153.9421 198.7313,154.1401 198.5723,154.2381 L194.9803,155.8561 C194.7233,156.0151 194.5463,155.8761 194.4473,155.6791 Z" id="Fill-23" fill="#5F5C64"></path>
                <path d="M156.8442,65.4312 C156.8442,65.4312 143.5882,83.5702 125.9492,66.9322 C141.8462,48.7442 156.8442,65.4312 156.8442,65.4312" id="Fill-25" fill="#F1C9C5"></path>
                <path d="M143.3853,25.1387 C143.3853,25.1387 147.5303,42.3737 128.5173,44.4907 C125.6923,25.6437 143.3853,25.1387 143.3853,25.1387" id="Fill-27" fill="#EDD3CF"></path>
                <path d="M160.6382,43.3018 C160.6382,43.3018 144.7702,33.1558 136.0402,51.5128 C153.9882,60.8988 160.6382,43.3018 160.6382,43.3018" id="Fill-29" fill="#F5D7D3"></path>
                <path d="M155.7324,29.8569 C155.7324,29.8569 155.3264,39.6409 144.9044,37.8919 C146.2544,27.4509 155.7324,29.8569 155.7324,29.8569" id="Fill-31" fill="#EFDAD6"></path>
                <path d="M166.1533,54.8442 C166.1533,54.8442 160.9603,64.1322 151.7133,57.3222 C158.1433,47.8592 166.1533,54.8442 166.1533,54.8442" id="Fill-33" fill="#EFDAD6"></path>
                <path d="M139.0811,13.0005 C139.0811,13.0005 141.9151,22.8305 131.0061,24.5445 C128.8891,13.7475 139.0811,13.0005 139.0811,13.0005" id="Fill-35" fill="#EFDAD6"></path>
                <path d="M130.1025,116.0405 C130.1025,116.0405 107.7655,113.6295 113.3545,90.0355 C137.0545,94.7085 130.1025,116.0405 130.1025,116.0405" id="Fill-37" fill="#F1C9C5"></path>
                <path d="M158.2671,84.2383 C158.2671,84.2383 145.4131,96.4453 134.0751,81.0383 C148.9831,69.1683 158.2671,84.2383 158.2671,84.2383" id="Fill-39" fill="#EDD3CF"></path>
                <path d="M151.1646,108.2612 C151.1646,108.2612 152.0166,89.4462 131.7536,91.0642 C132.5996,111.3002 151.1646,108.2612 151.1646,108.2612" id="Fill-41" fill="#F5D7D3"></path>
                <path d="M160.3545,97.2905 C160.3545,97.2905 151.6785,101.8315 147.9825,91.9305 C157.6995,87.8795 160.3545,97.2905 160.3545,97.2905" id="Fill-43" fill="#EFDAD6"></path>
                <path d="M143.9253,118.8091 C143.9253,118.8091 133.2853,118.9551 134.5593,107.5421 C145.9693,108.3791 143.9253,118.8091 143.9253,118.8091" id="Fill-45" fill="#EFDAD6"></path>
                <path d="M166.627,74.4419 C166.627,74.4419 159.531,81.8119 152.592,73.2209 C160.884,65.9889 166.627,74.4419 166.627,74.4419" id="Fill-47" fill="#EFDAD6"></path>
                <path d="M72.9028,118.186 C72.9028,118.186 63.8218,97.636 87.0498,90.68 C94.8528,113.54 72.9028,118.186 72.9028,118.186" id="Fill-49" fill="#F1C9C5"></path>
                <path d="M114.5259,126.6768 C114.5259,126.6768 97.5279,121.6478 105.2019,104.1248 C122.9359,111.1008 114.5259,126.6768 114.5259,126.6768" id="Fill-51" fill="#EDD3CF"></path>
                <path d="M90.1704,132.5366 C90.1704,132.5366 106.8904,123.8666 95.3584,107.1276 C78.2554,117.9776 90.1704,132.5366 90.1704,132.5366" id="Fill-53" fill="#F5D7D3"></path>
                <path d="M104.2661,135.0098 C104.2661,135.0098 95.9961,129.7668 102.7231,121.6148 C111.0891,128.0058 104.2661,135.0098 104.2661,135.0098" id="Fill-55" fill="#EFDAD6"></path>
                <path d="M77.4165,131.541 C77.4165,131.541 71.9695,122.4 82.4905,117.796 C87.4705,128.096 77.4165,131.541 77.4165,131.541" id="Fill-57" fill="#EFDAD6"></path>
                <path d="M127.1904,129.0181 C127.1904,129.0181 117.2594,126.5581 121.2304,116.2531 C131.6384,119.8181 127.1904,129.0181 127.1904,129.0181" id="Fill-59" fill="#EFDAD6"></path>
                <path d="M42.4448,69.7222 C42.4448,69.7222 55.7018,51.5832 73.3398,68.2212 C57.4428,86.4092 42.4448,69.7222 42.4448,69.7222" id="Fill-61" fill="#F1C9C5"></path>
                <path d="M55.9028,110.0142 C55.9028,110.0142 51.7588,92.7792 70.7708,90.6632 C73.5968,109.5092 55.9028,110.0142 55.9028,110.0142" id="Fill-63" fill="#EDD3CF"></path>
                <path d="M38.6509,91.8516 C38.6509,91.8516 54.5189,101.9976 63.2489,83.6406 C45.3009,74.2546 38.6509,91.8516 38.6509,91.8516" id="Fill-65" fill="#F5D7D3"></path>
                <path d="M43.5566,105.2954 C43.5566,105.2954 43.9616,95.5124 54.3846,97.2614 C53.0336,107.7024 43.5566,105.2954 43.5566,105.2954" id="Fill-67" fill="#EFDAD6"></path>
                <path d="M33.1357,80.3086 C33.1357,80.3086 38.3287,71.0206 47.5757,77.8306 C41.1457,87.2936 33.1357,80.3086 33.1357,80.3086" id="Fill-69" fill="#EFDAD6"></path>
                <path d="M60.2075,122.1528 C60.2075,122.1528 57.3735,112.3218 68.2815,110.6088 C70.3985,121.4048 60.2075,122.1528 60.2075,122.1528" id="Fill-71" fill="#EFDAD6"></path>
                <path d="M69.1865,19.1128 C69.1865,19.1128 91.5235,21.5248 85.9345,45.1178 C62.2345,40.4448 69.1865,19.1128 69.1865,19.1128" id="Fill-73" fill="#F1C9C5"></path>
                <path d="M41.0215,50.9146 C41.0215,50.9146 53.8755,38.7076 65.2145,54.1146 C50.3055,65.9856 41.0215,50.9146 41.0215,50.9146" id="Fill-75" fill="#EDD3CF"></path>
                <path d="M48.125,26.8921 C48.125,26.8921 47.273,45.7071 67.535,44.0891 C66.69,23.8521 48.125,26.8921 48.125,26.8921" id="Fill-77" fill="#F5D7D3"></path>
                <path d="M38.9351,37.8623 C38.9351,37.8623 47.6101,33.3213 51.3061,43.2223 C41.5891,47.2733 38.9351,37.8623 38.9351,37.8623" id="Fill-79" fill="#EFDAD6"></path>
                <path d="M55.3638,16.3442 C55.3638,16.3442 66.0038,16.1982 64.7298,27.6112 C53.3208,26.7742 55.3638,16.3442 55.3638,16.3442" id="Fill-81" fill="#EFDAD6"></path>
                <path d="M32.6616,60.7109 C32.6616,60.7109 39.7586,53.3409 46.6966,61.9319 C38.4046,69.1629 32.6616,60.7109 32.6616,60.7109" id="Fill-83" fill="#EFDAD6"></path>
                <path d="M126.3862,16.9678 C126.3862,16.9678 135.4662,37.5178 112.2392,44.4738 C104.4362,21.6128 126.3862,16.9678 126.3862,16.9678" id="Fill-85" fill="#F1C9C5"></path>
                <path d="M84.7632,8.4766 C84.7632,8.4766 101.7612,13.5056 94.0882,31.0276 C76.3532,24.0526 84.7632,8.4766 84.7632,8.4766" id="Fill-87" fill="#EDD3CF"></path>
                <path d="M109.1191,2.6172 C109.1191,2.6172 92.3981,11.2862 103.9311,28.0252 C121.0331,17.1752 109.1191,2.6172 109.1191,2.6172" id="Fill-89" fill="#F5D7D3"></path>
                <path d="M95.0229,0.1436 C95.0229,0.1436 103.2929,5.3866 96.5669,13.5376 C88.1999,7.1476 95.0229,0.1436 95.0229,0.1436" id="Fill-91" fill="#EFDAD6"></path>
                <path d="M121.873,3.6128 C121.873,3.6128 127.32,12.7538 116.799,17.3568 C111.819,7.0568 121.873,3.6128 121.873,3.6128" id="Fill-93" fill="#EFDAD6"></path>
                <path d="M72.0991,6.1348 C72.0991,6.1348 82.0301,8.5958 78.0591,18.8998 C67.6511,15.3348 72.0991,6.1348 72.0991,6.1348" id="Fill-95" fill="#EFDAD6"></path>
                <path d="M133.9375,47.7593 C133.9375,47.7593 129.8535,71.8813 104.7155,64.6003 C111.0145,39.2983 133.9375,47.7593 133.9375,47.7593" id="Fill-97" fill="#ECB7B9"></path>
                <path d="M133.9429,87.0957 C133.9429,87.0957 111.0099,95.6197 104.7479,70.2097 C129.8089,63.0127 133.9429,87.0957 133.9429,87.0957" id="Fill-99" fill="#ECB7B9"></path>
                <path d="M99.8789,106.7681 C99.8789,106.7681 81.0309,91.1701 99.9049,73.0411 C118.6679,91.1471 99.8789,106.7681 99.8789,106.7681" id="Fill-101" fill="#ECB7B9"></path>
                <path d="M65.8101,87.1045 C65.8101,87.1045 69.8941,62.9825 95.0321,70.2635 C88.7331,95.5655 65.8101,87.1045 65.8101,87.1045" id="Fill-103" fill="#ECB7B9"></path>
                <path d="M65.8052,47.7681 C65.8052,47.7681 88.7372,39.2451 95.0002,64.6551 C69.9382,71.8501 65.8052,47.7681 65.8052,47.7681" id="Fill-105" fill="#ECB7B9"></path>
                <path d="M99.8687,28.0957 C99.8687,28.0957 118.7167,43.6937 99.8427,61.8227 C81.0797,43.7167 99.8687,28.0957 99.8687,28.0957" id="Fill-107" fill="#ECB7B9"></path>
                <path d="M116.6807,60.6831 C116.7117,59.3611 116.5077,57.5511 115.4917,56.2091 C115.3937,56.0731 115.2927,55.9451 115.1857,55.8261 C114.9877,55.6031 114.7737,55.4121 114.5477,55.2421 C111.8637,52.9681 109.0187,53.8051 107.2997,54.4931 C103.5557,55.9871 99.9137,61.4231 99.7157,61.7201 C99.5207,61.4231 95.8787,55.9871 92.1347,54.4931 C90.4147,53.8051 87.5697,52.9681 84.8857,55.2421 C84.6617,55.4121 84.4467,55.6031 84.2477,55.8261 C84.1417,55.9451 84.0397,56.0731 83.9427,56.2091 C82.9257,57.5511 82.7237,59.3611 82.7527,60.6831 C82.7497,60.9171 82.5977,68.2101 99.7077,81.3971 C99.7107,81.3931 99.7137,81.3911 99.7157,81.3891 C99.7207,81.3911 99.7227,81.3931 99.7257,81.3971 C116.8377,68.2101 116.6827,60.9171 116.6807,60.6831" id="Fill-109" fill="#E77D8F"></path>
            </g>
        </g>
    </g>
</svg>